…
#### Gathering DOIs representing scholarly publications

DOIs have become essential for referencing scholarly publications, and thus many digital libraries and institutional databases keep track of these persistent identifiers. For the sake of this vignette, instead of starting with a pre-defined set of publications originating from these sources, we simply generate a random sample of 100 DOIs registered with Crossref by using the [rcrossref package](https://github.com/ropensci/rcrossref).


```r
library(dplyr)
library(rcrossref)
# get a random sample of DOIs and metadata describing these works
random_dois <- rcrossref::cr_r(sample = 100) %>%
  rcrossref::cr_works() %>%
  .$data
random_dois
#> # A tibble: 100 × 35
#>                                 alternative.id
#>                                          <chr>
#> 1                            10.1021/jp066070v
#> 2                                             
#> 3                                             
#> 4                      S0716-27902016000100001
#> 5                                             
#> 6  10.1061/41173(414)143,10.1061/9780784411735
#> 7                            S0016003210903979
#> 8                            S0144860906000343
#> 9                                             
#> 10                                            
#> # ... with 90 more rows, and 34 more variables: container.title <chr>,
#> #   created <chr>, deposited <chr>, DOI <chr>, funder <list>,
#> #   indexed <chr>, ISBN <chr>, ISSN <chr>, issue <chr>, issued <chr>,
#> #   link <list>, member <chr>, page <chr>, prefix <chr>, publisher <chr>,
#> #   reference.count <chr>, score <chr>, source <chr>, subject <chr>,
#> #   title <chr>, type <chr>, URL <chr>, volume <chr>, assertion <list>,
#> #   author <list>, `clinical-trial-number` <list>, license_date <chr>,
#> #   license_URL <chr>, license_delay.in.days <chr>,
#> #   license_content.version <chr>, abstract <chr>, update.policy <chr>,
#> #   subtitle <chr>, archive <chr>
```

Let's see when these random publications were published


```r
random_dois %>%
  # convert to years
  mutate(issued, issued = lubridate::parse_date_time(issued, c('y', 'ymd', 'ym'))) %>%
  mutate(issued, issued = lubridate::year(issued)) %>%
  group_by(issued) %>%
  summarize(pubs = n()) %>%
  arrange(desc(pubs))
#> # A tibble: 47 × 2
#>    issued  pubs
#>     <dbl> <int>
#> 1      NA    12
#> 2    2011     5
#> 3    2014     5
#> 4    2008     4
#> 5    2013     4
#> 6    2016     4
#> 7    1983     3
#> 8    2003     3
#> 9    2005     3
#> 10   2006     3
#> # ... with 37 more rows
```
…
Now let's call oaDOI.org


```r
oa_df <- roadoi::oadoi_fetch(dois = random_dois$DOI)
```

and merge the resulting information about open access full-text links with our Crossref metadata-set


```r
my_df <- dplyr::left_join(oa_df, random_dois, by = c("doi" = "DOI"))
my_df
#> # A tibble: 100 × 48
#>                                  `_best_open_url`
#>                                             <chr>
#> 1                                            <NA>
#> 2                                            <NA>
#> 3                                            <NA>
#> 4  http://doi.org/10.4067/s0716-27902016000100001
#> 5                                            <NA>
#> 6                                            <NA>
#> 7                                            <NA>
#> 8                                            <NA>
#> 9                                            <NA>
#> 10                                           <NA>
#> # ... with 90 more rows, and 47 more variables: doi <chr>,
#> #   doi_resolver <chr>, evidence <chr>, free_fulltext_url <chr>,
#> #   is_boai_license <lgl>, is_free_to_read <lgl>,
#> #   is_subscription_journal <lgl>, license <chr>, oa_color <chr>,
#> #   open_locations <list>, url <chr>, version <lgl>, year <int>,
#> #   alternative.id <chr>, container.title <chr>, created <chr>,
#> #   deposited <chr>, funder <list>, indexed <chr>, ISBN <chr>, ISSN <chr>,
#> #   issue <chr>, issued <chr>, link <list>, member <chr>, page <chr>,
#> #   prefix <chr>, publisher <chr>, reference.count <chr>, score <chr>,
…
